RISC_Processor/temp_1/Practice/Folder/processor.vcd
$date
	Wed Oct 30 11:07:29 2024
$end
$version
	Icarus Verilog
$end
$timescale
	1s
$end
$scope module processor_tb $end
$var wire 1 ! zero $end
$var wire 32 " result_out [31:0] $end
$var wire 1 # overflow $end
$var reg 1 $ clk $end
$var reg 4 % op [3:0] $end
$var reg 1 & rst $end
$var reg 4 ' rx [3:0] $end
$var reg 4 ( ry [3:0] $end
$var reg 4 ) rz [3:0] $end
$var reg 1 * write_en $end
$scope module uut $end
$var wire 1 $ clk $end
$var wire 4 + op [3:0] $end
$var wire 32 , result_out [31:0] $end
$var wire 1 & rst $end
$var wire 4 - rx [3:0] $end
$var wire 4 . ry [3:0] $end
$var wire 4 / rz [3:0] $end
$var wire 1 * write_en $end
$var wire 1 ! zero $end
$var wire 1 # overflow $end
$var wire 32 0 operand2 [31:0] $end
$var wire 32 1 operand1 [31:0] $end
$var wire 32 2 alu_result [31:0] $end
$var reg 4 3 op_reg [3:0] $end
$var reg 32 4 operand1_reg [31:0] $end
$var reg 32 5 operand2_reg [31:0] $end
$var reg 32 6 result_reg [31:0] $end
$var reg 4 7 rx_reg [3:0] $end
$var reg 1 8 write_en_reg $end
$scope module alu_unit $end
$var wire 32 9 A [31:0] $end
$var wire 32 : B [31:0] $end
$var wire 4 ; opcode [3:0] $end
$var wire 1 ! zero $end
$var wire 32 < xor_result [31:0] $end
$var wire 32 = sub_result [31:0] $end
$var wire 1 > sub_overflow $end
$var wire 32 ? srl_result [31:0] $end
$var wire 32 @ sra_result [31:0] $end
$var wire 32 A slt_result [31:0] $end
$var wire 32 B sll_result [31:0] $end
$var wire 32 C sgt_result [31:0] $end
$var wire 32 D or_result [31:0] $end
$var wire 32 E not_result [31:0] $end
$var wire 32 F nor_result [31:0] $end
$var wire 32 G lui_result [31:0] $end
$var wire 32 H inc_result [31:0] $end
$var wire 1 I inc_overflow $end
$var wire 32 J dec_result [31:0] $end
$var wire 1 K dec_overflow $end
$var wire 32 L and_result [31:0] $end
$var wire 32 M add_result [31:0] $end
$var wire 1 N add_overflow $end
$var reg 1 # overflow $end
$var reg 32 O result [31:0] $end
$scope module add $end
$var wire 32 P A [31:0] $end
$var wire 32 Q B [31:0] $end
$var wire 1 N overflow $end
$var wire 32 R result [31:0] $end
$upscope $end
$scope module and_gate $end
$var wire 32 S A [31:0] $end
$var wire 32 T B [31:0] $end
$var wire 32 U result [31:0] $end
$upscope $end
$scope module dec $end
$var wire 32 V A [31:0] $end
$var wire 32 W result [31:0] $end
$var wire 1 K overflow $end
$upscope $end
$scope module inc $end
$var wire 32 X A [31:0] $end
$var wire 32 Y result [31:0] $end
$var wire 1 I overflow $end
$upscope $end
$scope module lui $end
$var wire 32 Z B [31:0] $end
$var wire 32 [ result [31:0] $end
$upscope $end
$scope module nor_gate $end
$var wire 32 \ A [31:0] $end
$var wire 32 ] B [31:0] $end
$var wire 32 ^ result [31:0] $end
$upscope $end
$scope module not_gate $end
$var wire 32 _ A [31:0] $end
$var wire 32 ` result [31:0] $end
$upscope $end
$scope module or_gate $end
$var wire 32 a A [31:0] $end
$var wire 32 b B [31:0] $end
$var wire 32 c result [31:0] $end
$upscope $end
$scope module sgt $end
$var wire 32 d A [31:0] $end
$var wire 32 e B [31:0] $end
$var wire 32 f result [31:0] $end
$upscope $end
$scope module sll $end
$var wire 32 g A [31:0] $end
$var wire 32 h result [31:0] $end
$upscope $end
$scope module slt $end
$var wire 32 i A [31:0] $end
$var wire 32 j B [31:0] $end
$var wire 32 k result [31:0] $end
$upscope $end
$scope module sra $end
$var wire 32 l A [31:0] $end
$var wire 32 m result [31:0] $end
$upscope $end
$scope module srl $end
$var wire 32 n A [31:0] $end
$var wire 32 o result [31:0] $end
$upscope $end
$scope module sub $end
$var wire 32 p A [31:0] $end
$var wire 32 q B [31:0] $end
$var wire 1 > overflow $end
$var wire 32 r result [31:0] $end
$upscope $end
$scope module xor_gate $end
$var wire 32 s A [31:0] $end
$var wire 32 t B [31:0] $end
$var wire 32 u result [31:0] $end
$upscope $end
$upscope $end
$scope module reg_bank $end
$var wire 1 $ clk $end
$var wire 4 v read_reg1 [3:0] $end
$var wire 4 w read_reg2 [3:0] $end
$var wire 1 & rst $end
$var wire 32 x write_data [31:0] $end
$var wire 1 8 write_enable $end
$var wire 4 y write_reg [3:0] $end
$var reg 32 z data_out1 [31:0] $end
$var reg 32 { data_out2 [31:0] $end
$var integer 32 | i [31:0] $end
$upscope $end
$upscope $end
$upscope $end
$enddefinitions $end
$comment Show the parameter values. $end
$dumpall
$end
#0
$dumpvars
b10000 |
bx {
bx z
b0 y
b0 x
b0 w
b0 v
b0 u
b0 t
b0 s
b0 r
b0 q
b0 p
b0 o
b0 n
b0 m
b0 l
b0 k
b0 j
b0 i
b0 h
b0 g
b0 f
b0 e
b0 d
b0 c
b0 b
b0 a
b11111111111111111111111111111111 `
b0 _
b11111111111111111111111111111111 ^
b0 ]
b0 \
b0 [
b0 Z
b1 Y
b0 X
b11111111111111111111111111111111 W
b0 V
b0 U
b0 T
b0 S
b0 R
b0 Q
b0 P
b0 O
0N
b0 M
b0 L
1K
b11111111111111111111111111111111 J
0I
b1 H
b0 G
b11111111111111111111111111111111 F
b11111111111111111111111111111111 E
b0 D
b0 C
b0 B
b0 A
b0 @
b0 ?
0>
b0 =
b0 <
b0 ;
b0 :
b0 9
08
b0 7
b0 6
b0 5
b0 4
b0 3
b0 2
bx 1
bx 0
b0 /
b0 .
b0 -
b0 ,
b0 +
0*
b0 )
b0 (
b0 '
1&
b0 %
0$
0#
b0 "
1!
$end
#5
b0 0
b0 {
b0 1
b0 z
b10000 |
1$
#10
0$
#15
b10000 |
1$
#20
0$
#25
b10000 |
1$
#30
0$
#35
b10000 |
1$
#40
0$
#45
b10000 |
1$
#50
0$
#55
b10000 |
1$
#60
0$
#65
b10000 |
1$
#70
0$
#75
b10000 |
1$
#80
0$
#85
b10000 |
1$
#90
0$
#95
b10000 |
1$
#100
0$
0&
#105
b10100 0
b10100 {
b10100 1
b10100 z
1$
#110
0$
1*
b1110 %
b1110 +
b1 '
b1 -
#115
b11111111111111111111111111101011 F
b11111111111111111111111111101011 ^
0!
b101000000000000000000 2
b101000000000000000000 O
b101000000000000000000 x
b101000000000000000000 G
b101000000000000000000 [
b10100 L
b10100 U
b10011 J
b10011 W
0K
b10101 H
b10101 Y
b11111111111111111111111111101011 E
b11111111111111111111111111101011 `
b10100 D
b10100 c
b101000 B
b101000 h
b1010 @
b1010 m
b1010 ?
b1010 o
b1 7
b1 y
18
b1110 3
b1110 ;
b10100 5
b10100 :
b10100 Q
b10100 T
b10100 Z
b10100 ]
b10100 b
b10100 e
b10100 j
b10100 q
b10100 t
b101000 M
b101000 R
b0 =
b0 r
b10100 4
b10100 9
b10100 P
b10100 S
b10100 V
b10100 X
b10100 \
b10100 _
b10100 a
b10100 d
b10100 g
b10100 i
b10100 l
b10100 n
b10100 p
b10100 s
1$
#120
0$
#125
b101000000000000000000 "
b101000000000000000000 ,
b101000000000000000000 6
1$
#130
0$
b10 '
b10 -
#135
b10 7
b10 y
1$
#140
0$
#145
1$
#150
0$
b0 %
b0 +
b11 '
b11 -
b10 )
b10 /
b10 w
b1 (
b1 .
b1 v
#155
b101000 2
b101000 O
b101000 x
b101000000000000000000 0
b101000000000000000000 {
b101000000000000000000 1
b101000000000000000000 z
b11 7
b11 y
b0 3
b0 ;
1$
#160
0$
#165
b11111111111010111111111111111111 F
b11111111111010111111111111111111 ^
b0 G
b0 [
b101000000000000000000 L
b101000000000000000000 U
b100111111111111111111 J
b100111111111111111111 W
b101000000000000000001 H
b101000000000000000001 Y
b11111111111010111111111111111111 E
b11111111111010111111111111111111 `
b101000000000000000000 D
b101000000000000000000 c
b1010000000000000000000 B
b1010000000000000000000 h
b10100000000000000000 @
b10100000000000000000 m
b10100000000000000000 ?
b10100000000000000000 o
b1010000000000000000000 2
b1010000000000000000000 O
b1010000000000000000000 x
b101000 "
b101000 ,
b101000 6
b101000000000000000000 5
b101000000000000000000 :
b101000000000000000000 Q
b101000000000000000000 T
b101000000000000000000 Z
b101000000000000000000 ]
b101000000000000000000 b
b101000000000000000000 e
b101000000000000000000 j
b101000000000000000000 q
b101000000000000000000 t
b1010000000000000000000 M
b1010000000000000000000 R
b0 =
b0 r
b101000000000000000000 4
b101000000000000000000 9
b101000000000000000000 P
b101000000000000000000 S
b101000000000000000000 V
b101000000000000000000 X
b101000000000000000000 \
b101000000000000000000 _
b101000000000000000000 a
b101000000000000000000 d
b101000000000000000000 g
b101000000000000000000 i
b101000000000000000000 l
b101000000000000000000 n
b101000000000000000000 p
b101000000000000000000 s
1$
#170
0$
b1 %
b1 +
b100 '
b100 -
b1 )
b1 /
b1 w
b11 (
b11 .
b11 v
#175
1!
b0 2
b0 O
b0 x
b101000 1
b101000 z
b100 7
b100 y
b1 3
b1 ;
b1010000000000000000000 "
b1010000000000000000000 ,
b1010000000000000000000 6
1$
#180
0$
#185
b11111111111010111111111111010111 F
b11111111111010111111111111010111 ^
b0 L
b0 U
b100111 J
b100111 W
b101001 H
b101001 Y
b11111111111111111111111111010111 E
b11111111111111111111111111010111 `
b101000000000000101000 D
b101000000000000101000 c
b1010000 B
b1010000 h
b1 A
b1 k
b10100 @
b10100 m
b10100 ?
b10100 o
0!
b11111111111011000000000000101000 2
b11111111111011000000000000101000 O
b11111111111011000000000000101000 x
b101000000000000101000 <
b101000000000000101000 u
b1010000000000000000000 1
b1010000000000000000000 z
b0 "
b0 ,
b0 6
b101000000000000101000 M
b101000000000000101000 R
b11111111111011000000000000101000 =
b11111111111011000000000000101000 r
b101000 4
b101000 9
b101000 P
b101000 S
b101000 V
b101000 X
b101000 \
b101000 _
b101000 a
b101000 d
b101000 g
b101000 i
b101000 l
b101000 n
b101000 p
b101000 s
1$
#190
0$
b1010 %
b1010 +
b101 '
b101 -
b100 (
b100 .
b100 v
#195
b11111111110000111111111111111111 F
b11111111110000111111111111111111 ^
b1001111111111111111111 J
b1001111111111111111111 W
b1010000000000000000001 H
b1010000000000000000001 Y
b11111111110101111111111111111111 E
b11111111110101111111111111111111 `
b1111000000000000000000 D
b1111000000000000000000 c
b1 C
b1 f
b10100000000000000000000 B
b10100000000000000000000 h
b0 A
b0 k
b101000000000000000000 @
b101000000000000000000 m
b101000000000000000000 ?
b101000000000000000000 o
b1010000000000000000001 2
b1010000000000000000001 O
b1010000000000000000001 x
b1111000000000000000000 <
b1111000000000000000000 u
b0 1
b0 z
b101 7
b101 y
b1010 3
b1010 ;
b1111000000000000000000 M
b1111000000000000000000 R
b101000000000000000000 =
b101000000000000000000 r
b1010000000000000000000 4
b1010000000000000000000 9
b1010000000000000000000 P
b1010000000000000000000 S
b1010000000000000000000 V
b1010000000000000000000 X
b1010000000000000000000 \
b1010000000000000000000 _
b1010000000000000000000 a
b1010000000000000000000 d
b1010000000000000000000 g
b1010000000000000000000 i
b1010000000000000000000 l
b1010000000000000000000 n
b1010000000000000000000 p
b1010000000000000000000 s
b11111111111011000000000000101000 "
b11111111111011000000000000101000 ,
b11111111111011000000000000101000 6
1$
#200
0$
#205
b11111111111010111111111111111111 F
b11111111111010111111111111111111 ^
b1 2
b1 O
b1 x
b11111111111111111111111111111111 J
b11111111111111111111111111111111 W
1K
b1 H
b1 Y
b11111111111111111111111111111111 E
b11111111111111111111111111111111 `
b101000000000000000000 D
b101000000000000000000 c
b0 C
b0 f
b0 B
b0 h
b1 A
b1 k
b0 @
b0 m
b0 ?
b0 o
b101000000000000000000 <
b101000000000000000000 u
b11111111111011000000000000101000 1
b11111111111011000000000000101000 z
b1010000000000000000001 "
b1010000000000000000001 ,
b1010000000000000000001 6
b101000000000000000000 M
b101000000000000000000 R
b11111111111011000000000000000000 =
b11111111111011000000000000000000 r
b0 4
b0 9
b0 P
b0 S
b0 V
b0 X
b0 \
b0 _
b0 a
b0 d
b0 g
b0 i
b0 l
b0 n
b0 p
b0 s
1$
#210
0$
b10 %
b10 +
b110 '
b110 -
b10 )
b10 /
b10 w
b1 (
b1 .
b1 v
#215
b111111111111010111 F
b111111111111010111 ^
b1000000000000000000 L
b1000000000000000000 U
b11111111111011000000000000100111 J
b11111111111011000000000000100111 W
0K
b11111111111011000000000000101001 H
b11111111111011000000000000101001 Y
b100111111111111010111 E
b100111111111111010111 `
b11111111111111000000000000101000 D
b11111111111111000000000000101000 c
b11111111110110000000000001010000 B
b11111111110110000000000001010000 h
b11111111111101100000000000010100 @
b11111111111101100000000000010100 m
b1111111111101100000000000010100 ?
b1111111111101100000000000010100 o
0!
b1000000000000000000 2
b1000000000000000000 O
b1000000000000000000 x
b11111111111110000000000000101000 <
b11111111111110000000000000101000 u
b101000000000000000000 1
b101000000000000000000 z
b110 7
b110 y
b10 3
b10 ;
b101000 M
b101000 R
b11111111110110000000000000101000 =
b11111111110110000000000000101000 r
b11111111111011000000000000101000 4
b11111111111011000000000000101000 9
b11111111111011000000000000101000 P
b11111111111011000000000000101000 S
b11111111111011000000000000101000 V
b11111111111011000000000000101000 X
b11111111111011000000000000101000 \
b11111111111011000000000000101000 _
b11111111111011000000000000101000 a
b11111111111011000000000000101000 d
b11111111111011000000000000101000 g
b11111111111011000000000000101000 i
b11111111111011000000000000101000 l
b11111111111011000000000000101000 n
b11111111111011000000000000101000 p
b11111111111011000000000000101000 s
b1 "
b1 ,
b1 6
1$
#220
0$
#225
b11111111111010111111111111111111 F
b11111111111010111111111111111111 ^
b101000000000000000000 2
b101000000000000000000 O
b101000000000000000000 x
b101000000000000000000 L
b101000000000000000000 U
b100111111111111111111 J
b100111111111111111111 W
b101000000000000000001 H
b101000000000000000001 Y
b11111111111010111111111111111111 E
b11111111111010111111111111111111 `
b101000000000000000000 D
b101000000000000000000 c
b1010000000000000000000 B
b1010000000000000000000 h
b0 A
b0 k
b10100000000000000000 @
b10100000000000000000 m
b10100000000000000000 ?
b10100000000000000000 o
b0 <
b0 u
b1000000000000000000 "
b1000000000000000000 ,
b1000000000000000000 6
b1010000000000000000000 M
b1010000000000000000000 R
b0 =
b0 r
b101000000000000000000 4
b101000000000000000000 9
b101000000000000000000 P
b101000000000000000000 S
b101000000000000000000 V
b101000000000000000000 X
b101000000000000000000 \
b101000000000000000000 _
b101000000000000000000 a
b101000000000000000000 d
b101000000000000000000 g
b101000000000000000000 i
b101000000000000000000 l
b101000000000000000000 n
b101000000000000000000 p
b101000000000000000000 s
1$
#230
0$
b1100 %
b1100 +
b111 '
b111 -
#235
1!
b0 2
b0 O
b0 x
b111 7
b111 y
b1100 3
b1100 ;
b101000000000000000000 "
b101000000000000000000 ,
b101000000000000000000 6
1$
#240
0$
#245
b0 "
b0 ,
b0 6
1$
